  B0508/15 NOTAMN
  Q) ESAA/QFAAH/IV/NBO/A /000/999/5746N01404E005
  A) ESGJ B) 1503020000 C) 1503222359
  E) AERODROME HOURS OF OPS/SERVICE MON 05002000 TUE-THU 0500-2100 FRI 0545-2100 SAT 0630-0730, 1900-2100 SUN CLOSED CREATED: 26 Feb 2015 10:54:00 SOURCE: EUECYIYN
